<svg width="24" height="24" viewBox="0 0 24 24" fill="none" xmlns="http://www.w3.org/2000/svg">
<rect width="24" height="24" rx="12" fill="white"/>
<rect x="5" y="5" width="14" height="14" rx="7" fill="#004FC4"/>
<rect x="1" y="1" width="22" height="22" rx="11" stroke="#004FC4" stroke-width="2"/>
</svg>
