<svg width="20" height="21" viewBox="0 0 20 21" fill="none" xmlns="http://www.w3.org/2000/svg">
<path d="M9.44633 2.26487C9.76207 1.98422 10.2379 1.98422 10.5536 2.26487L18.0536 8.93154C18.3976 9.23731 18.4286 9.76403 18.1228 10.108C17.817 10.452 17.2903 10.483 16.9463 10.1772L16.6666 9.9286V16.221C16.6666 17.1415 15.9204 17.8877 15 17.8877H4.99997C4.07949 17.8877 3.3333 17.1415 3.3333 16.221V9.9286L3.0536 10.1772C2.70962 10.483 2.18289 10.452 1.87713 10.108C1.57136 9.76403 1.60235 9.23731 1.94633 8.93154L9.44633 2.26487ZM4.99997 8.44712V16.221H7.49997V12.0544C7.49997 11.5941 7.87306 11.221 8.3333 11.221H11.6666C12.1269 11.221 12.5 11.5941 12.5 12.0544V16.221H15V8.44712L9.99997 4.00268L4.99997 8.44712ZM10.8333 16.221V12.8877H9.16664V16.221H10.8333Z" fill="#545563"/>
</svg>
