<svg width="20" height="20" viewBox="0 0 20 20" fill="none" xmlns="http://www.w3.org/2000/svg">
<path d="M2.5 4.16667C2.5 3.24619 3.24619 2.5 4.16667 2.5H7.5H12.5H13.8215C14.2635 2.5 14.6874 2.67559 15 2.98816L17.2559 5.24408C17.4122 5.40036 17.5 5.61232 17.5 5.83333V15.8333C17.5 16.7538 16.7538 17.5 15.8333 17.5H12.5H7.5H4.16667C3.24619 17.5 2.5 16.7538 2.5 15.8333V4.16667ZM7.5 15.8333H12.5V10.8333H7.5V15.8333ZM14.1667 15.8333H15.8333V6.17851L14.1667 4.51184V5.83333C14.1667 6.75381 13.4205 7.5 12.5 7.5H7.5C6.57953 7.5 5.83333 6.75381 5.83333 5.83333V4.16667H4.16667V15.8333H5.83333V10.8333C5.83333 9.91286 6.57953 9.16667 7.5 9.16667H12.5C13.4205 9.16667 14.1667 9.91286 14.1667 10.8333V15.8333ZM7.5 4.16667V5.83333H12.5V4.16667H7.5Z" fill="#545563"/>
</svg>
