<svg width="33" height="33" viewBox="0 0 33 33" fill="none" xmlns="http://www.w3.org/2000/svg">
<path d="M5.83203 5.72135C5.83203 4.2486 7.02594 3.05469 8.4987 3.05469H19.1654C19.519 3.05469 19.8581 3.19516 20.1082 3.44521L26.7748 10.1119C27.0249 10.3619 27.1654 10.7011 27.1654 11.0547V27.0547C27.1654 28.5274 25.9715 29.7214 24.4987 29.7214H8.4987C7.02594 29.7214 5.83203 28.5274 5.83203 27.0547V5.72135ZM23.9464 11.0547L19.1654 6.27364V11.0547H23.9464ZM16.4987 5.72135L8.4987 5.72135V27.0547H24.4987V13.7214H17.832C17.0957 13.7214 16.4987 13.1244 16.4987 12.388V5.72135ZM21.4415 16.7785C21.9622 17.2992 21.9622 18.1435 21.4415 18.6642L16.1082 23.9975C15.5875 24.5182 14.7433 24.5182 14.2226 23.9975L11.5559 21.3308C11.0352 20.8101 11.0352 19.9659 11.5559 19.4452C12.0766 18.9245 12.9208 18.9245 13.4415 19.4452L15.1654 21.1691L19.5559 16.7785C20.0766 16.2578 20.9208 16.2578 21.4415 16.7785Z" fill="#1E1F32"/>
</svg>
