<svg width="20" height="20" viewBox="0 0 20 20" fill="none" xmlns="http://www.w3.org/2000/svg">
<path d="M18.0886 3.08934C18.414 2.7639 18.414 2.23626 18.0886 1.91083C17.7632 1.58539 17.2355 1.58539 16.9101 1.91083L13.3327 5.48824L13.3327 4.16674C13.3327 3.70651 12.9596 3.33341 12.4993 3.33341C12.0391 3.33341 11.666 3.70651 11.666 4.16674L11.666 7.50008C11.666 7.96032 12.0391 8.33341 12.4994 8.33341L15.8327 8.33342C16.2929 8.33342 16.666 7.96032 16.666 7.50008C16.666 7.03984 16.2929 6.66675 15.8327 6.66675L14.5112 6.66675L18.0886 3.08934ZM1.91009 18.0893C1.58466 17.7639 1.58466 17.2363 1.91009 16.9108L5.4875 13.3334H4.16602C3.70578 13.3334 3.33268 12.9603 3.33268 12.5001C3.33268 12.0398 3.70578 11.6667 4.16602 11.6667H7.49935C7.95958 11.6667 8.33268 12.0398 8.33268 12.5001L8.33268 15.8334C8.33268 16.2937 7.95959 16.6668 7.49935 16.6668C7.03911 16.6668 6.66602 16.2937 6.66602 15.8334L6.66602 14.5119L3.0886 18.0893C2.76317 18.4148 2.23553 18.4148 1.91009 18.0893Z" fill="#545563"/>
</svg>
