<svg width="20" height="20" viewBox="0 0 20 20" fill="none" xmlns="http://www.w3.org/2000/svg">
<path d="M3.33398 5.83333C3.33398 5.3731 3.70708 5 4.16732 5H15.834C16.2942 5 16.6673 5.3731 16.6673 5.83333C16.6673 6.29357 16.2942 6.66667 15.834 6.66667H4.16732C3.70708 6.66667 3.33398 6.29357 3.33398 5.83333ZM3.33398 10C3.33398 9.53976 3.70708 9.16667 4.16732 9.16667H15.834C16.2942 9.16667 16.6673 9.53976 16.6673 10C16.6673 10.4602 16.2942 10.8333 15.834 10.8333H4.16732C3.70708 10.8333 3.33398 10.4602 3.33398 10ZM3.33398 14.1667C3.33398 13.7064 3.70708 13.3333 4.16732 13.3333H15.834C16.2942 13.3333 16.6673 13.7064 16.6673 14.1667C16.6673 14.6269 16.2942 15 15.834 15H4.16732C3.70708 15 3.33398 14.6269 3.33398 14.1667Z" fill="#545563"/>
</svg>
