<svg width="24" height="24" viewBox="0 0 24 24" fill="none" xmlns="http://www.w3.org/2000/svg">
<path d="M24 12C24 18.6274 18.6274 24 12 24C5.37258 24 0 18.6274 0 12C0 5.37258 5.37258 0 12 0C18.6274 0 24 5.37258 24 12Z" fill="white"/>
<path fill-rule="evenodd" clip-rule="evenodd" d="M12 22.9091C18.0249 22.9091 22.9091 18.0249 22.9091 12C22.9091 5.97508 18.0249 1.09091 12 1.09091C5.97508 1.09091 1.09091 5.97508 1.09091 12C1.09091 18.0249 5.97508 22.9091 12 22.9091ZM12 24C18.6274 24 24 18.6274 24 12C24 5.37258 18.6274 0 12 0C5.37258 0 0 5.37258 0 12C0 18.6274 5.37258 24 12 24Z" fill="#242428" fill-opacity="0.6"/>
<path d="M8.57178 8.9948C8.57178 8.11275 9.52859 7.56318 10.2905 8.00762L15.4421 11.0127C16.1981 11.4537 16.1981 12.5461 15.4421 12.9871L10.2905 15.9922C9.52859 16.4367 8.57178 15.8871 8.57178 15.005V8.9948ZM14.8663 11.9999L9.71463 8.9948V15.005L14.8663 11.9999Z" fill="#242428" fill-opacity="0.6"/>
</svg>
