<svg width="20" height="21" viewBox="0 0 20 21" fill="none" xmlns="http://www.w3.org/2000/svg">
<path d="M10 3.72102C8.15905 3.72102 6.66667 5.2134 6.66667 7.05435C6.66667 8.8953 8.15905 10.3877 10 10.3877C11.8409 10.3877 13.3333 8.8953 13.3333 7.05435C13.3333 5.2134 11.8409 3.72102 10 3.72102ZM5 7.05435C5 4.29293 7.23858 2.05435 10 2.05435C12.7614 2.05435 15 4.29293 15 7.05435C15 9.81578 12.7614 12.0544 10 12.0544C7.23858 12.0544 5 9.81578 5 7.05435ZM6.66667 15.3877C5.28595 15.3877 4.16667 16.507 4.16667 17.8877C4.16667 18.3479 3.79357 18.721 3.33333 18.721C2.8731 18.721 2.5 18.3479 2.5 17.8877C2.5 15.5865 4.36548 13.721 6.66667 13.721H13.3333C15.6345 13.721 17.5 15.5865 17.5 17.8877C17.5 18.3479 17.1269 18.721 16.6667 18.721C16.2064 18.721 15.8333 18.3479 15.8333 17.8877C15.8333 16.507 14.714 15.3877 13.3333 15.3877H6.66667Z" fill="#545563"/>
</svg>
