<svg width="20" height="20" viewBox="0 0 20 20" fill="none" xmlns="http://www.w3.org/2000/svg">
<path d="M9.44572 1.87724C9.76146 1.59658 10.2373 1.59658 10.553 1.87724L18.053 8.54391C18.397 8.84967 18.428 9.3764 18.1222 9.72038C17.8164 10.0644 17.2897 10.0954 16.9457 9.78959L16.666 9.54097V15.8334C16.666 16.7539 15.9198 17.5001 14.9994 17.5001H4.99936C4.07888 17.5001 3.33269 16.7539 3.33269 15.8334V9.54097L3.05299 9.78959C2.70901 10.0954 2.18228 10.0644 1.87652 9.72038C1.57075 9.3764 1.60174 8.84967 1.94572 8.54391L9.44572 1.87724ZM4.99936 8.05949V15.8334H7.49936V11.6667C7.49936 11.2065 7.87245 10.8334 8.33269 10.8334H11.666C12.1263 10.8334 12.4994 11.2065 12.4994 11.6667V15.8334H14.9994V8.05949L9.99936 3.61504L4.99936 8.05949ZM10.8327 15.8334V12.5001H9.16602V15.8334H10.8327Z" fill="#545563"/>
</svg>
