<svg width="20" height="20" viewBox="0 0 20 20" fill="none" xmlns="http://www.w3.org/2000/svg">
<path d="M9.99935 3.33341C6.31745 3.33341 3.33268 6.31818 3.33268 10.0001C3.33268 13.682 6.31745 16.6667 9.99935 16.6667C13.6812 16.6667 16.666 13.682 16.666 10.0001C16.666 6.31818 13.6812 3.33341 9.99935 3.33341ZM1.66602 10.0001C1.66602 5.39771 5.39698 1.66675 9.99935 1.66675C14.6017 1.66675 18.3327 5.39771 18.3327 10.0001C18.3327 14.6025 14.6017 18.3334 9.99935 18.3334C5.39698 18.3334 1.66602 14.6025 1.66602 10.0001ZM9.99935 5.00008C10.4596 5.00008 10.8327 5.37318 10.8327 5.83342V9.6549L13.0886 11.9108C13.414 12.2363 13.414 12.7639 13.0886 13.0893C12.7632 13.4148 12.2355 13.4148 11.9101 13.0893L9.41009 10.5893C9.25381 10.4331 9.16602 10.2211 9.16602 10.0001V5.83342C9.16602 5.37318 9.53911 5.00008 9.99935 5.00008Z" fill="#545563"/>
</svg>
