<svg width="20" height="21" viewBox="0 0 20 21" fill="none" xmlns="http://www.w3.org/2000/svg">
<path d="M1.66663 5.38771C1.66663 4.46723 2.41282 3.72104 3.33329 3.72104H16.6666C17.5871 3.72104 18.3333 4.46723 18.3333 5.38771V15.3877C18.3333 16.3082 17.5871 17.0544 16.6666 17.0544H3.33329C2.41282 17.0544 1.66663 16.3082 1.66663 15.3877V5.38771ZM4.59879 5.38771L9.99996 10.1137L15.4011 5.38771H4.59879ZM16.6666 6.49501L10.5487 11.8482C10.2345 12.1231 9.76539 12.1231 9.45121 11.8482L3.33329 6.49501V15.3877H16.6666V6.49501Z" fill="#545563"/>
</svg>
